{
    "sample_rate": 100,
    "reporting_period": 0,
    "enabled_layers": {
        "backend": true,
        "router": true,
        "pipe": true
    },
    "exporters": {
        "zipkin": {
            "collector_url": "http://172.15.0.6:9411/api/v2/spans",
            "service_name": "krakend"
        }
    }
}
